<?xml version="1.0" encoding="UTF-8" standalone="no"?>
<svg
   xmlns:dc="http://purl.org/dc/elements/1.1/"
   xmlns:cc="http://creativecommons.org/ns#"
   xmlns:rdf="http://www.w3.org/1999/02/22-rdf-syntax-ns#"
   xmlns:svg="http://www.w3.org/2000/svg"
   xmlns="http://www.w3.org/2000/svg"
   xmlns:sodipodi="http://sodipodi.sourceforge.net/DTD/sodipodi-0.dtd"
   xmlns:inkscape="http://www.inkscape.org/namespaces/inkscape"
   version="1.0"
   width="256"
   height="256"
   viewBox="0 0 192 192.00001"
   preserveAspectRatio="xMidYMid meet"
   id="svg34"
   sodipodi:docname="user-offline.svg"
   inkscape:version="0.92.3 (2405546, 2018-03-11)">
  <metadata
     id="metadata40">
    <rdf:RDF>
      <cc:Work
         rdf:about="">
        <dc:format>image/svg+xml</dc:format>
        <dc:type
           rdf:resource="http://purl.org/dc/dcmitype/StillImage" />
        <dc:title></dc:title>
      </cc:Work>
    </rdf:RDF>
  </metadata>
  <defs
     id="defs38" />
  <sodipodi:namedview
     pagecolor="#ffffff"
     bordercolor="#666666"
     borderopacity="1"
     objecttolerance="10"
     gridtolerance="10"
     guidetolerance="10"
     inkscape:pageopacity="0"
     inkscape:pageshadow="2"
     inkscape:window-width="2560"
     inkscape:window-height="983"
     id="namedview36"
     showgrid="false"
     units="px"
     inkscape:zoom="1.6373887"
     inkscape:cx="361.09244"
     inkscape:cy="154.48319"
     inkscape:window-x="0"
     inkscape:window-y="36"
     inkscape:window-maximized="1"
     inkscape:current-layer="svg34"
     fit-margin-top="0"
     fit-margin-left="0"
     fit-margin-right="6"
     fit-margin-bottom="0" />
  <path
     style="fill:#800000;stroke:none;stroke-width:0.01502244"
     inkscape:connector-curvature="0"
     id="path2"
     d="m 38.410571,4.5235433 c 0.0601,0.19529 1.14171,3.6955207 2.40359,7.7816217 2.11817,6.8953 4.10113,13.30989 12.40854,40.18503 1.72758,5.61839 3.80068,12.30338 4.58184,14.87222 0.79619,2.55381 1.4722,4.73207 1.53229,4.8222 0.0451,0.0901 1.78767,-1.05157 4.29642,-2.82422 2.31346,-1.63744 4.29642,-3.03453 4.40158,-3.10964 0.16524,-0.0901 -0.13521,-1.23184 -1.39709,-5.2879 -2.88431,-9.29889 -9.08858,-29.45901 -9.08858,-29.5191 0,-0.0451 6.53476,4.79216 8.03701,5.96391 0.0901,0.0751 0.76614,-0.24036 1.57735,-0.72108 1.75763,-1.03654 5.45315,-2.85426 7.361,-3.6204 0.78117,-0.31547 1.41211,-0.63095 1.39709,-0.69104 -0.03,-0.12018 -37.40588,-28.1820917 -37.54108,-28.1820917 -0.0451,0 -0.0301,0.15022 0.03,0.33049 z" />
  <path
     style="fill:#800000;stroke:none;stroke-width:0.01502244"
     inkscape:connector-curvature="0"
     id="path4"
     d="m 127.85418,26.366175 c -15.98387,11.26683 -29.083439,20.53567 -29.098459,20.59576 -0.015,0.0601 1.892819,1.56234 4.251349,3.31996 l 4.28139,3.19978 2.88431,-2.02803 c 1.59238,-1.11166 8.26234,-5.81368 14.82715,-10.44059 6.56481,-4.62691 11.95786,-8.39755 11.97288,-8.3675 0.015,0.015 -0.0751,0.33049 -0.19529,0.69103 -0.1352,0.37556 -0.8713,2.53879 -1.65247,4.80718 l -1.41211,4.13117 1.02153,0.88633 c 1.48722,1.30695 4.2814,4.16121 5.72355,5.84373 0.69103,0.81121 1.30695,1.42713 1.36704,1.35202 0.0601,-0.0601 0.48072,-1.23184 0.94642,-2.59889 0.45067,-1.36704 2.79417,-8.26234 5.21278,-15.32289 5.87378,-17.20069 6.26436,-18.35742 7.51122,-22.00787 0.58588,-1.742601 1.17175,-3.440141 1.30696,-3.800681 0.1352,-0.34551 0.21031,-0.66099 0.18026,-0.69103 -0.03,-0.015 -13.14463,9.178711 -29.12851,20.430521 z" />
  <path
     style="fill:#550000;stroke:none;stroke-width:0.01502244"
     inkscape:connector-curvature="0"
     id="path6"
     d="m 90.643601,30.857885 c -7.361,0.84125 -13.71549,2.7491 -20.10003,6.06906 -3.35,1.74261 -7.93184,4.70203 -7.82669,5.04754 0.58588,2.0731 3.19978,10.4406 3.25987,10.4406 0.0451,0 0.63094,-0.45067 1.27691,-0.99148 6.63992,-5.54328 14.7971,-9.05853 23.72043,-10.21526 2.41862,-0.31547 7.87176,-0.36054 10.215259,-0.0901 0.91637,0.10516 1.77265,0.21032 1.90785,0.22534 0.36054,0.0451 11.40203,-7.75158 11.1767,-7.88678 -0.43565,-0.24036 -4.687,-1.36704 -6.70001,-1.77265 -4.02602,-0.79619 -5.58835,-0.94641 -10.515709,-0.99148 -3.19978,-0.03 -5.13767,0.015 -6.41458,0.16525 z" />
  <path
     style="fill:#550000;stroke:none;stroke-width:0.01502244"
     inkscape:connector-curvature="0"
     id="path8"
     d="m 124.12862,43.852295 c -2.41862,1.71256 -4.40158,3.16973 -4.40158,3.22982 0,0.0601 0.82624,0.64597 1.84776,1.32198 3.19978,2.13318 6.03902,4.5518 8.62288,7.33095 5.55831,6.00897 9.5693,13.9258 11.16168,21.97783 0.15022,0.81121 0.31547,1.48722 0.34551,1.51727 0.52579,0.52578 10.87625,8.14216 10.92132,8.02198 0.0901,-0.28543 -0.28543,-6.12916 -0.52579,-7.91683 -1.75762,-13.70046 -8.95337,-26.78501 -19.58926,-35.6182 -1.69754,-1.41211 -3.8157,-3.03454 -3.92086,-3.00449 -0.03,0 -2.04305,1.42713 -4.46166,3.13969 z" />
  <path
     style="fill:#800000;stroke:none;stroke-width:0.01502244"
     inkscape:connector-curvature="0"
     id="path10"
     d="m 89.847411,43.206325 c -1.72758,0.30045 -4.29642,0.87131 -5.79866,1.30696 -1.69754,0.49574 -5.55831,1.93789 -5.81369,2.19327 -0.10515,0.0901 40.815969,30.87112 41.266649,31.03636 0.16524,0.0601 3.68049,-10.06503 3.54529,-10.20023 -0.36054,-0.3305 -32.538599,-24.32133 -32.658779,-24.3664 -0.0901,-0.015 -0.3305,0 -0.54081,0.03 z" />
  <path
     style="fill:#550000;stroke:none;stroke-width:0.01502244"
     inkscape:connector-curvature="0"
     id="path12"
     d="m 50.608801,54.322935 c -4.43162,6.17422 -7.79665,14.10607 -9.26885,21.82761 -1.0065,5.21278 -1.24686,11.89777 -0.61592,17.05046 0.39058,3.319955 1.48722,8.322435 2.37355,10.891265 l 0.28542,0.82624 3.06458,0.0901 c 1.68251,0.0451 4.19126,0.10516 5.5583,0.12018 l 2.50875,0.015 -0.75112,-1.90785 c -4.31144,-11.041485 -4.07108,-24.005845 0.66099,-34.641735 0.33049,-0.76615 0.70605,-1.65247 0.82623,-1.98296 l 0.22534,-0.6009 -1.96794,-6.38454 c -1.09664,-3.50023 -1.99799,-6.38454 -2.02803,-6.41458 -0.015,-0.0301 -0.42063,0.48072 -0.8713,1.11166 z" />
  <path
     style="fill:#800000;stroke:none;stroke-width:0.01502244"
     inkscape:connector-curvature="0"
     id="path14"
     d="m 69.897611,67.182145 c -13.14464,9.25382 -16.70495,11.82266 -16.76504,12.12311 -0.31548,1.39708 -0.57086,4.50673 -0.58588,6.91032 0,2.83924 0.15022,5.5583 0.33049,5.5583 0.16525,-0.015 42.24311,-29.71438 42.24311,-29.81954 0,-0.0601 -1.92288,-1.54731 -4.26638,-3.30494 l -4.26637,-3.19978 z" />
  <path
     style="fill:#800000;stroke:none;stroke-width:0.01502244"
     inkscape:connector-curvature="0"
     id="path16"
     d="m 127.35844,60.872715 c -1.53229,4.5518 -2.89933,8.53275 -5.66346,16.62984 -1.08161,3.18476 -2.50874,7.33096 -3.15471,9.23881 -0.64596,1.89282 -1.65247,4.83722 -2.22332,6.53476 -1.29193,3.785655 -2.95942,8.682965 -3.72557,10.921305 -0.31547,0.93139 -0.5408,1.71256 -0.51076,1.7426 0.0451,0.03 2.4787,0.10516 5.40808,0.15023 l 5.33297,0.0901 0.7361,-2.13318 c 2.26838,-6.7 4.43161,-13.054495 7.15068,-20.986345 1.08161,-3.18476 2.43363,-7.13566 3.00448,-8.78813 0.55583,-1.65247 1.30696,-3.84574 1.6675,-4.88229 l 0.64596,-1.86279 -0.82623,-1.59237 c -0.91637,-1.77265 -2.86929,-4.77714 -4.1462,-6.36952 -1.12668,-1.39709 -2.2083,-2.64395 -2.29843,-2.64395 -0.0451,0 -0.67601,1.77265 -1.39709,3.9509 z" />
  <path
     style="fill:#800000;stroke:none;stroke-width:0.01502244"
     inkscape:connector-curvature="0"
     id="path18"
     d="m 134.83962,76.646285 c -0.45068,1.23184 -3.38005,9.92983 -3.38005,10.01996 0,0.0751 6.51974,5.00248 14.49665,10.966375 7.97692,5.96391 14.49666,10.86123 14.49666,10.86123 0,0.015 -2.31346,0.015 -5.13768,-0.015 l -5.15269,-0.0451 -0.75113,1.77265 c -0.82623,1.92287 -2.49372,5.07758 -3.77063,7.07557 -0.43565,0.70605 -0.79619,1.30695 -0.76614,1.32197 0.03,0.0301 17.38096,0.30045 40.18502,0.63094 3.8157,0.0601 6.94037,0.0751 6.94037,0.0301 -0.015,-0.0451 -2.08812,-1.62243 -4.62691,-3.53028 -2.53879,-1.89282 -15.38298,-11.50718 -28.54264,-21.361905 -14.3314,-10.74104 -23.94577,-17.84665 -23.99083,-17.72647 z" />
  <path
     style="fill:#800000;stroke:none;stroke-width:0.01502244"
     inkscape:connector-curvature="0"
     id="path20"
     d="m 68.185051,83.256155 c -2.35852,1.66749 -4.34148,3.0796 -4.38655,3.12467 -0.0451,0.0451 1.21682,4.34148 2.82422,9.539245 5.0926,16.47961 7.9018,25.61326 8.51772,27.5812 0.58588,1.86278 0.6009,1.90785 1.23184,2.26838 1.06659,0.61592 3.98095,1.84776 6.03902,2.55382 1.80269,0.61592 5.30292,1.53229 5.40808,1.42713 0.03,-0.03 -0.28543,-1.09664 -0.67601,-2.37354 -1.05157,-3.4101 -6.56481,-21.24173 -10.51571,-34.025825 -4.20628,-13.61033 -4.05606,-13.14464 -4.10112,-13.14464 -0.015,0 -1.96794,1.38207 -4.34149,3.04956 z" />
  <path
     style="fill:#800000;stroke:none;stroke-width:0.01502244"
     inkscape:connector-curvature="0"
     id="path22"
     d="m 19.392171,102.75528 c -10.4556197,7.36099 -19.10854972,13.43006 -19.22872972,13.50517 -0.12018,0.0751 -0.19529,0.15022 -0.15022,0.19529 0.0451,0.03 8.21727002,0.18027 18.17714972,0.31547 9.95988,0.15023 25.9738,0.39059 35.60318,0.54081 9.62939,0.1352 17.51617,0.25538 17.53119,0.24036 0.0601,-0.0451 -3.09462,-10.18521 -3.18476,-10.29037 -0.0751,-0.0601 -27.04039,-0.52579 -35.13748,-0.6009 l -1.17175,-0.015 3.9509,-2.79418 c 2.17825,-1.53228 4.05606,-2.86928 4.17624,-2.98946 0.18027,-0.18027 0.16524,-0.48072 -0.18027,-2.13319 -0.66099,-3.244835 -0.91637,-5.137665 -1.09664,-7.751575 -0.0601,-0.88632 -0.1352,-1.6074 -0.19529,-1.6074 -0.0451,0 -8.63791,6.024 -19.09352,13.384995 z" />
  <path
     style="fill:#550000;stroke:none;stroke-width:0.01502244"
     inkscape:connector-curvature="0"
     id="path24"
     d="m 141.08895,96.98667 c -0.0751,0.31547 -0.25538,0.99147 -0.39058,1.51726 -0.43565,1.7426 -1.57736,4.97242 -2.40359,6.82018 -3.99597,8.93836 -10.83118,16.44958 -19.39397,21.2868 l -1.38207,0.78117 -0.90134,2.65897 c -0.51077,1.45718 -1.50225,4.34149 -2.2083,6.39956 -0.70606,2.05807 -1.26189,3.77063 -1.23184,3.78565 0.015,0.015 0.78117,-0.21031 1.68251,-0.52578 11.97289,-4.13117 22.44353,-12.48365 29.1886,-23.29981 1.44216,-2.29843 2.64395,-4.56682 3.69552,-6.94036 0.96144,-2.17826 2.47871,-6.35449 2.3435,-6.45965 -0.75112,-0.55583 -8.02198,-5.97892 -8.36749,-6.2343 l -0.48072,-0.36055 z" />
  <path
     style="fill:#800000;stroke:none;stroke-width:0.01502244"
     inkscape:connector-curvature="0"
     id="path26"
     d="m 82.967131,107.63758 c 0.3305,1.21682 3.04956,9.92983 3.12467,10.01997 0.0451,0.0601 9.25382,0.25538 20.445539,0.42063 l 20.34038,0.30044 1.60741,-1.65246 c 0.88632,-0.91637 2.23834,-2.50875 3.00448,-3.53028 1.35202,-1.80269 3.35001,-4.86727 3.24485,-4.97243 -0.03,-0.03 -9.47916,-0.19529 -21.00137,-0.36053 -11.52221,-0.16525 -23.179629,-0.34552 -25.898689,-0.40561 -4.79216,-0.10516 -4.94238,-0.0901 -4.86727,0.18027 z" />
  <path
     style="fill:#550000;stroke:none;stroke-width:0.01502244"
     inkscape:connector-curvature="0"
     id="path28"
     d="m 51.630321,120.42168 c 5.90382,7.61637 12.97939,13.33992 21.19666,17.15562 7.10562,3.28992 13.82065,4.86727 22.1581,5.21279 l 2.46368,0.10516 0.81122,-2.38857 c 0.43565,-1.30695 1.23184,-3.63543 1.757619,-5.1527 0.51076,-1.51726 0.94642,-2.80919 0.94642,-2.85426 0,-0.0601 -1.847769,-0.10516 -4.086109,-0.0901 -4.44664,0 -5.82871,-0.12018 -9.49418,-0.85628 -8.11212,-1.6074 -15.36796,-5.28789 -21.78254,-11.04149 l -1.337,-1.20179 -4.73206,-0.0901 c -2.59889,-0.0601 -5.67849,-0.10516 -6.82019,-0.10516 h -2.10314 z" />
  <path
     style="fill:#800000;stroke:none;stroke-width:0.01502244"
     inkscape:connector-curvature="0"
     id="path30"
     d="m 107.09317,120.31652 c -0.16525,0.4056 -1.38206,3.98095 -5.94889,17.42603 -0.66098,1.93789 -2.103139,6.12916 -3.184749,9.31391 -1.08162,3.18476 -2.08812,6.11414 -2.22332,6.51974 -0.13521,0.40561 -0.27041,0.64597 -0.31548,0.52579 -0.0451,-0.12018 -0.73609,-2.31346 -1.51726,-4.86727 l -1.44216,-4.65696 -0.75112,-0.10516 c -0.4056,-0.0601 -1.65247,-0.21031 -2.76413,-0.34551 -1.93789,-0.24036 -5.33296,-0.88633 -7.01548,-1.337 -0.58587,-0.15022 -0.79619,-0.16525 -0.79619,-0.0451 0,0.18027 0.63095,2.22332 6.91033,22.56371 1.90785,6.18924 4.2213,13.67042 5.12265,16.59979 0.90135,2.92938 1.68251,5.43813 1.72758,5.55831 0.0901,0.22533 0.37556,-0.55583 2.4787,-6.73006 2.28341,-6.68498 3.575339,-10.48566 4.611889,-13.55024 2.58386,-7.55629 4.86727,-14.22625 7.54127,-22.08298 2.22332,-6.53477 3.30493,-9.68948 5.43812,-15.92379 0.57085,-1.69754 1.50224,-4.4166 2.05807,-6.05404 0.63095,-1.86279 0.96144,-3.00449 0.85628,-3.03454 -0.0901,-0.03 -2.52377,-0.0751 -5.40808,-0.10515 l -5.2278,-0.0451 z" />
</svg>
