<svg width="256" height="256" version="1.1" viewBox="0 0 67.733 67.733" xmlns="http://www.w3.org/2000/svg">
 <path transform="scale(.26458)" d="m128 0c-70.912-9.4739e-15 -128 57.088-128 128-9.4739e-15 70.912 57.088 128 128 128 70.912 0 128-57.086 128-128 0-70.912-57.086-128-128-128zm0 7.9746c66.48 0 120 53.52 120 120 0 66.48-53.52 120-120 120-66.48 0-120-53.52-120-120 0-66.48 53.52-120 120-120z" fill="#a55aa5" stroke-width="3.7795" style="paint-order:normal"/>
 <g fill="#e5f0fa" fill-rule="evenodd">
  <rect x="23.168" y="17.621" width="22.375" height="8.1177" style="paint-order:normal"/>
  <rect x="12.158" y="40.605" width="17.859" height="9.9442" style="paint-order:normal"/>
  <rect x="37.932" y="40.402" width="17.859" height="9.9442" style="paint-order:normal"/>
 </g>
 <rect x="20.629" y="13.202" width="26.512" height="3.8387" fill="#c4e2f8" fill-rule="evenodd" style="paint-order:normal"/>
 <path d="m33.96 12.353c-11.233 0-12.431 0.0047-12.631 0.04599-0.8532 0.1762-1.5096 0.83243-1.6841 1.6836-0.0404 0.1987-0.04496 1.0513-0.04496 8.323 0 7.2969 0.0043 8.1232 0.04548 8.3225 0.1758 0.85116 0.83239 1.5078 1.6836 1.6836 0.12414 0.02578 0.69533 0.03537 1.756 0.04031h21.74c1.0678-5e-3 1.6421-0.01414 1.7663-0.03979 0.8548-0.1766 1.5082-0.83328 1.6862-1.695 0.0384-0.1844 0.0434-1.1985 0.0434-8.3116 0-7.2969-5e-3 -8.1237-0.046-8.323-0.1758-0.85116-0.83239-1.5078-1.6836-1.6836-0.2-0.0417-1.3978-0.04599-12.631-0.04599zm-0.0016 1.4805c11.696 0 12.427 0.0026 12.512 0.04909 0.11574 0.06335 0.25666 0.20462 0.31936 0.31988 0.0389 0.07158 0.0509 0.18402 0.0589 0.5426l0.01 0.45269h-25.801l0.01033-0.45269c0.0079-0.35858 0.02001-0.471 0.05891-0.5426 0.06269-0.11526 0.20361-0.25648 0.31936-0.31988 0.085-0.0464 0.81611-0.04909 12.512-0.04909zm2.2402 5.6787 5.8162 0.0078 0.12971 0.05994c0.58455 0.2706 0.58455 1.0746 0 1.3451l-0.12971 0.05994-5.8446 0.0047c-4.6457 0.0043-5.8724-2e-3 -5.9795-0.03101-0.27483-0.07435-0.47865-0.28813-0.53795-0.56482-0.08238-0.38415 0.1831-0.77594 0.58136-0.85835 0.1039-0.0212 1.9076-0.02826 5.9645-0.02325zm-9.3772 0.0072c0.88687 0 0.92267 0.0022 1.0335 0.06201 0.13513 0.07292 0.24584 0.18631 0.31884 0.32608 0.079 0.15019 0.07445 0.54823-0.0078 0.70332-0.07098 0.13392-0.18312 0.24458-0.32453 0.31988h-5.16e-4c-0.09128 0.0486-0.18394 0.05391-1.0056 0.05891-0.49758 0.0029-0.94324-0.0051-0.99064-0.01705-0.32357-0.08218-0.51365-0.33275-0.51366-0.67748-1.1e-5 -0.33169 0.15476-0.58308 0.44132-0.71572 0.12284-0.057 0.17755-0.05994 1.049-0.05994zm9.3772 2.8644 5.8162 0.0078 0.12971 0.05994c0.58455 0.2706 0.58455 1.074 0 1.3446l-0.12971 0.06046-5.8446 0.0047c-4.6457 0.0043-5.8724-2e-3 -5.9795-0.031-0.27483-0.07435-0.47865-0.28813-0.53795-0.56482-0.08238-0.38415 0.1831-0.77646 0.58136-0.85886 0.1039-0.0212 1.9076-0.02774 5.9645-0.02274zm-9.3772 0.0072c0.88687 0 0.92267 0.0022 1.0335 0.06201 0.13513 0.07292 0.24584 0.18632 0.31884 0.32608 0.079 0.15019 0.07445 0.54824-0.0078 0.70332-0.07098 0.13393-0.18312 0.24458-0.32453 0.31988h-5.16e-4c-0.09128 0.0486-0.18394 0.05391-1.0056 0.05891-0.49758 0.0029-0.94324-0.0051-0.99064-0.01705-0.32357-0.08218-0.51365-0.33275-0.51366-0.67748-1.1e-5 -0.33168 0.15476-0.58308 0.44132-0.71572 0.12284-0.057 0.17755-0.05994 1.049-0.05994z" fill="#7ec7f4" stroke-width=".028721"/>
 <g fill="#c4e2f8">
  <path d="m18.835 51.984 0.1435 2.7983h4.4486l0.07175-2.9059 5.9195 0.03587 0.71752-1.0045 0.05227-1.9973-18.392 0.05073 0.0761 2.1309 0.82446 0.74836z"/>
  <path d="m44.845 51.786 0.1435 2.7983h4.4486l0.07175-2.9059 5.9195 0.03587 0.71752-1.0045 0.05227-1.9973-18.392 0.05073 0.0761 2.1309 0.82446 0.74836z"/>
  <g fill-rule="evenodd">
   <rect transform="matrix(1 0 -.73641 .67654 0 0)" x="72.643" y="60.171" width="2.3805" height="15.166" style="paint-order:normal"/>
   <rect transform="matrix(1 0 -.73641 .67654 0 0)" x="66.822" y="60.171" width="2.3805" height="15.166" style="paint-order:normal"/>
   <path transform="matrix(1 0 -.73641 .67654 0 0)" d="m62.544 59.429h2.3805v12.583s-2.1252-2.7691-2.3805-3.0226l-7.0124-9.492z" style="paint-order:normal"/>
   <path d="m44.995 40.355h2.3805l-9.2664 8.5131s-0.08601-1.8734-0.15466-2.0449l-0.0224-6.4218z" style="paint-order:normal"/>
   <rect transform="matrix(1 0 -.73641 .67654 0 0)" x="93.199" y="60.392" width="2.3805" height="15.166" style="paint-order:normal"/>
   <rect transform="matrix(1 0 -.73641 .67654 0 0)" x="99.02" y="60.392" width="2.3805" height="15.166" style="paint-order:normal"/>
  </g>
 </g>
 <path d="m15.793 55.323c-0.59332-0.16063-0.6738-0.96822-0.12468-1.251l0.14249-0.0734 2.328-0.0288v-1.4647l-5.3708-0.0308-0.2154-0.0655c-0.7473-0.22718-1.2918-0.76649-1.483-1.4689-0.02795-0.10268-0.06436-0.19591-0.08092-0.20718-0.04227-0.0288-0.04227-9.3218 0-9.3506 0.01656-0.0113 0.05302-0.1045 0.08103-0.20717 0.19233-0.70512 0.73174-1.2396 1.4829-1.4693l0.2154-0.0659 7.2662-0.018 0.06358-0.0812c0.03497-0.0447 2.1904-1.6556 4.7898-3.5799s4.7216-3.5125 4.716-3.5294c-7e-3 -0.0216-1.2363-0.0352-4.1149-0.0457l-4.1046-0.015-0.2154-0.0659c-0.76581-0.23446-1.2791-0.75237-1.4988-1.5125l-0.06643-0.22977v-16.399l0.0664-0.22938c0.22298-0.7703 0.7436-1.291 1.5132-1.5136l0.22976-0.0664h25.016l0.22976 0.0664c0.76729 0.22186 1.2913 0.74591 1.5132 1.5132l0.0664 0.22976v16.399l-0.0664 0.22976c-0.21978 0.76009-0.73282 1.2778-1.4988 1.5125l-0.2154 0.066-4.1286 9e-3c-3.5298 7e-3 -4.1286 0.0144-4.1286 0.0491 0 0.0223 2.0259 1.5937 4.5019 3.492 2.4761 1.8983 4.5601 3.5078 4.6312 3.5765l0.1293 0.12505 7.6108 0.018 0.2154 0.0659c0.74894 0.22921 1.2918 0.7671 1.483 1.4694 0.028 0.10267 0.0644 0.1959 0.0809 0.20717 0.0423 0.0288 0.0423 9.3219 0 9.3506-0.0166 0.0113-0.053 0.1045-0.0809 0.20718-0.19121 0.70245-0.73567 1.2418-1.483 1.4689l-0.2154 0.0655-5.3708 0.0308v1.4647l2.328 0.0288 0.14249 0.0734c0.49234 0.25351 0.49229 0.94974 0 1.2031l-0.14257 0.0734h-10.371l-0.14257-0.0734c-0.49237-0.25338-0.49242-0.94961 0-1.2031l0.14248-0.0734 2.328-0.0288v-1.4647l-5.3708-0.0308-0.2154-0.0655c-0.76408-0.23228-1.279-0.75174-1.4988-1.512l-0.0664-0.22977v-9.2193l0.0664-0.22938c0.22092-0.76322 0.7313-1.2783 1.4989-1.5127l0.2154-0.0658 3.2689-9e-3c3.0595-8e-3 3.2683-0.0121 3.2595-0.0579-5e-3 -0.0269-2.0965-1.6547-4.6475-3.6173l-4.6382-3.5685-3.8826-8.7e-4 -4.765 3.5346c-2.6207 1.944-4.7955 3.5607-4.8328 3.5926-0.03878 0.0332-0.05703 0.0688-0.04265 0.0832 0.014 0.014 1.5459 0.0291 3.4568 0.0341l3.4317 9e-3 0.2154 0.0658c0.76536 0.23389 1.279 0.75221 1.4988 1.5124l0.0664 0.22977v9.2193l-0.0664 0.22976c-0.21983 0.76029-0.73476 1.2798-1.4988 1.512l-0.2154 0.0655-5.3708 0.0308v1.4647l2.328 0.0288 0.14249 0.0734c0.49233 0.25352 0.49228 0.94974-8e-5 1.2031l-0.14256 0.0734-5.1274 5e-3c-4.0623 4e-3 -5.1553-2e-3 -5.2618-0.0309zm6.6232-1.3838c0.06752-0.0675 0.06752-1.3357 0-1.4032-0.03977-0.0398-0.20838-0.0451-1.4196-0.0451s-1.3798 5e-3 -1.4196 0.0451c-0.06752 0.0675-0.06752 1.3357 0 1.4032 0.03977 0.0398 0.20838 0.0451 1.4196 0.0451s1.3798-5e-3 1.4196-0.0451zm25.848 0c0.0384-0.0384 0.0451-0.1431 0.0451-0.7016 0-0.55849-7e-3 -0.6632-0.0451-0.7016-0.0398-0.0398-0.20838-0.0451-1.4196-0.0451s-1.3798 5e-3 -1.4196 0.0451c-0.0384 0.0384-0.0451 0.14311-0.0451 0.7016 0 0.5585 7e-3 0.66321 0.0451 0.7016 0.0398 0.0398 0.20838 0.0451 1.4196 0.0451s1.3798-5e-3 1.4196-0.0451zm-19.068-2.8945c0.17274-0.0806 0.33347-0.25119 0.399-0.42345 0.0389-0.10216 0.0465-0.20928 0.04-0.55728l-8e-3 -0.43081-1.1775-0.0144c-1.1375-0.0139-1.1814-0.0165-1.2924-0.0763-0.30324-0.16363-0.44069-0.47455-0.34872-0.78882 0.0571-0.19523 0.18127-0.34586 0.35587-0.43185 0.13459-0.0663 0.15239-0.0674 1.2996-0.0816l1.1632-0.0144 8e-3 -3.3029c7e-3 -3.0212 4e-3 -3.3136-0.04-3.4293-0.0649-0.17199-0.22566-0.34272-0.39863-0.42344l-0.1436-0.067h-16.112l-0.1436 0.067c-0.17298 0.0807-0.3337 0.25145-0.39863 0.42344-0.04368 0.11569-0.04708 0.40812-0.03996 3.4293l0.0078 3.3029 12.438 0.0288 0.14256 0.0734c0.49815 0.25637 0.49786 0.94558-5.4e-4 1.2145l-0.11488 0.062-12.465 0.0288-0.0082 0.43081c-0.0066 0.348 0.0011 0.45512 0.03996 0.55728 0.06553 0.17226 0.22626 0.34283 0.399 0.42345l0.1436 0.067h16.112l0.1436-0.067zm25.848 0c0.17274-0.0806 0.33347-0.25119 0.399-0.42345 0.0389-0.10216 0.0465-0.20928 0.04-0.55728l-8e-3 -0.43081-1.1775-0.0144c-1.1375-0.0139-1.1814-0.0165-1.2924-0.0763-0.30324-0.16363-0.44069-0.47455-0.34872-0.78882 0.0571-0.19523 0.18127-0.34586 0.35587-0.43185 0.13459-0.0663 0.15239-0.0674 1.2996-0.0816l1.1632-0.0144 8e-3 -3.3029c7e-3 -3.0212 4e-3 -3.3136-0.04-3.4293-0.0649-0.17199-0.22566-0.34272-0.39863-0.42344l-0.1436-0.067h-16.112l-0.1436 0.067c-0.17298 0.0807-0.3337 0.25145-0.39863 0.42344-0.0437 0.11569-0.0471 0.40812-0.04 3.4293l8e-3 3.3029 12.438 0.0288 0.14256 0.0734c0.49815 0.25637 0.49786 0.94558-5.4e-4 1.2145l-0.11488 0.062-12.465 0.0288-8e-3 0.43081c-7e-3 0.348 1e-3 0.45512 0.04 0.55728 0.0655 0.17226 0.22625 0.34283 0.399 0.42345l0.1436 0.067h16.112l0.1436-0.067zm-8.6896-20.082c0.10964-0.0325 0.19101-0.0839 0.29026-0.18315 0.24986-0.24985 0.2284 0.43419 0.2284-7.2815 0-5.2808-8e-3 -6.8468-0.0345-6.8734-0.0502-0.0502-25.787-0.0502-25.837 0-0.02661 0.0266-0.03447 1.5925-0.03447 6.8734 0 7.7166-0.02152 7.0316 0.22877 7.2819 0.0935 0.0935 0.18349 0.15217 0.27786 0.18115 0.1228 0.0377 1.6178 0.0431 12.434 0.0449 11.109 2e-3 12.309-2e-3 12.447-0.0433zm-23.439-1.4864c-0.19961-0.0747-0.3736-0.25769-0.42671-0.44887-0.01554-0.0559-0.02833-0.47098-0.02842-0.92231-2.17e-4 -0.93339 0.01273-1.0093 0.20426-1.2008 0.26776-0.26776 0.70224-0.2675 0.97031 5.4e-4 0.19698 0.19698 0.20823 0.26876 0.19824 1.2647-8e-3 0.75903-0.0151 0.88265-0.0582 0.96133-0.0641 0.11721-0.20623 0.25835-0.31851 0.31641-0.12078 0.0625-0.4101 0.078-0.541 0.029zm3.5901 0c-0.19961-0.0747-0.37359-0.25769-0.42671-0.44887-0.0155-0.0559-0.0283-0.47098-0.0284-0.92231-2.1e-4 -0.93339 0.0127-1.0093 0.20426-1.2008 0.26776-0.26776 0.70224-0.2675 0.97031 5.4e-4 0.19698 0.19698 0.20824 0.26876 0.19823 1.2647-8e-3 0.75903-0.0151 0.88265-0.0582 0.96133-0.0642 0.11721-0.20623 0.25835-0.31851 0.31641-0.12078 0.0625-0.4101 0.078-0.54101 0.029zm3.5901 0c-0.19961-0.0747-0.3736-0.25769-0.42671-0.44887-0.0155-0.0559-0.0283-0.47098-0.0284-0.92231-2.2e-4 -0.93339 0.0127-1.0093 0.20426-1.2008 0.26776-0.26776 0.70224-0.2675 0.97031 5.4e-4 0.19698 0.19698 0.20823 0.26876 0.19823 1.2647-8e-3 0.75903-0.0151 0.88265-0.0582 0.96133-0.0641 0.11721-0.20623 0.25835-0.31852 0.31641-0.12078 0.0625-0.4101 0.078-0.541 0.029zm3.5901 0c-0.19961-0.0747-0.37359-0.25769-0.42671-0.44887-0.0155-0.0559-0.0283-0.47098-0.0284-0.92231-2.2e-4 -0.93339 0.0127-1.0093 0.20426-1.2008 0.26776-0.26776 0.70224-0.2675 0.97031 5.4e-4 0.19698 0.19698 0.20823 0.26876 0.19823 1.2647-8e-3 0.75903-0.0151 0.88265-0.0582 0.96133-0.0641 0.11721-0.20623 0.25835-0.31851 0.31641-0.12078 0.0625-0.4101 0.078-0.541 0.029zm3.5901 0c-0.19961-0.0747-0.3736-0.25769-0.42671-0.44887-0.0155-0.0559-0.0283-0.47098-0.0284-0.92231-2.2e-4 -0.93339 0.0127-1.0093 0.20426-1.2008 0.26776-0.26776 0.70224-0.2675 0.97031 5.4e-4 0.19698 0.19698 0.20823 0.26876 0.19823 1.2647-8e-3 0.75903-0.0151 0.88265-0.0582 0.96133-0.0641 0.11721-0.20623 0.25835-0.31851 0.31641-0.12078 0.0625-0.4101 0.078-0.541 0.029zm3.5901 0c-0.19961-0.0747-0.37359-0.25769-0.42671-0.44887-0.0155-0.0559-0.0283-0.47098-0.0284-0.92231-3.3e-4 -0.93339 0.0127-1.0093 0.20426-1.2008 0.26776-0.26776 0.70224-0.2675 0.97032 5.4e-4 0.19698 0.19698 0.20823 0.26876 0.19824 1.2647-8e-3 0.75903-0.0151 0.88265-0.0582 0.96133-0.0642 0.11721-0.20623 0.25835-0.31851 0.31641-0.12078 0.0625-0.4101 0.078-0.54101 0.029zm3.5901 0c-0.19961-0.0747-0.37359-0.25769-0.42671-0.44887-0.0155-0.0559-0.0283-0.47098-0.0284-0.92231-3.3e-4 -0.93339 0.0127-1.0093 0.20426-1.2008 0.26776-0.26776 0.70224-0.2675 0.97032 5.4e-4 0.19698 0.19698 0.20823 0.26876 0.19824 1.2647-8e-3 0.75903-0.0151 0.88265-0.0582 0.96133-0.0641 0.11721-0.20623 0.25835-0.31851 0.31641-0.12078 0.0625-0.4101 0.078-0.541 0.029zm2.4106-14.71c7e-3 -0.34799-1e-3 -0.45512-0.04-0.55728-0.0655-0.17226-0.22626-0.34283-0.399-0.42344l-0.1436-0.067h-24.728l-0.1436 0.068c-0.17373 0.0823-0.30703 0.21746-0.38547 0.39096-0.05035 0.11137-0.05852 0.18915-0.05906 0.56244-3.26e-4 0.23827 8e-3 0.44184 0.01855 0.45238 0.01055 0.0106 5.8362 0.0159 12.946 0.012l12.927-7e-3z" fill="#8c6b9e" stroke-width=".028721"/>
</svg>
