<svg width="256" height="256" version="1.1" viewBox="0 0 67.733 67.733" xmlns="http://www.w3.org/2000/svg" xmlns:xlink="http://www.w3.org/1999/xlink">
 <defs>
  <linearGradient id="g" x1="10.679" x2="7.929" y1="15.929" y2="11.107" gradientTransform="matrix(.26458 0 0 .26458 -20.737 273.16)" gradientUnits="userSpaceOnUse">
   <stop stop-color="#939393" offset="0"/>
   <stop stop-color="#d9d9d9" offset="1"/>
  </linearGradient>
  <linearGradient id="f" x1="2.761" x2="18.773" y1="6.11" y2="18.693" gradientTransform="matrix(.26458 0 0 .26458 -81.77 261.35)" gradientUnits="userSpaceOnUse" xlink:href="#a"/>
  <linearGradient id="a">
   <stop stop-color="#fdfdfd" offset="0"/>
   <stop stop-color="#d4d4d4" offset="1"/>
  </linearGradient>
  <linearGradient id="e" x1="2.761" x2="18.773" y1="6.11" y2="18.693" gradientUnits="userSpaceOnUse" xlink:href="#a"/>
  <linearGradient id="d" x1="5.463" x2="21.536" y1="13.143" y2="49.143" gradientTransform="matrix(.26458 0 0 .26458 -20.737 273.16)" gradientUnits="userSpaceOnUse">
   <stop stop-color="#fff" offset="0"/>
   <stop stop-color="#fff" stop-opacity="0" offset="1"/>
  </linearGradient>
  <radialGradient id="c" cx="27.216" cy="35.673" r="19.571" gradientTransform="matrix(.76282 0 0 .56515 -37.926 259.27)" gradientUnits="userSpaceOnUse">
   <stop stop-color="#5d5d5d" offset="0"/>
   <stop stop-color="#444" offset="1"/>
  </radialGradient>
  <radialGradient id="b" cx="24.643" cy="44.286" r="22.071" gradientTransform="matrix(.26458 0 0 .0548 -20.737 282.22)" gradientUnits="userSpaceOnUse">
   <stop offset="0"/>
   <stop stop-opacity="0" offset="1"/>
  </radialGradient>
 </defs>
 <path transform="scale(.26458)" d="m128 0c-70.912-9.4739e-15 -128 57.088-128 128-9.4739e-15 70.912 57.088 128 128 128 70.912 0 128-57.086 128-128 0-70.912-57.086-128-128-128zm0 7.9746c66.48 0 120 53.52 120 120 0 66.48-53.52 120-120 120-66.48 0-120-53.52-120-120 0-66.48 53.52-120 120-120z" fill="#a55aa5" stroke-width="3.7795" style="paint-order:normal"/>
 <g transform="matrix(3.7403 0 0 3.7403 87.049 -1012.2)">
  <g stroke-width=".26458">
   <path d="m-8.3773 284.65a5.84 1.2094 0 1 1-11.68 0 5.84 1.2094 0 1 1 11.68 0z" color="#000000" display="block" fill="url(#b)" opacity=".744"/>
   <rect x="-19.301" y="277.54" width="10.092" height="7.4083" rx=".30242" ry=".30242" color="#000000" display="block" fill="url(#c)" stroke="#1b1b1b"/>
   <rect x="-19.046" y="277.78" width="9.5443" height="6.895" rx=".072496" ry=".072496" color="#000000" display="block" fill="none" opacity=".312" stroke="url(#d)"/>
  </g>
  <g transform="matrix(-.25736 .061388 .061388 .25736 -8.6228 274.51)">
   <rect transform="rotate(-12.991)" x="1.705" y="10.353" width="39.806" height="6.509" rx="1.143" ry="1.143" color="#000000" display="block" fill="url(#e)" stroke="#2b2b2b"/>
   <path d="m9.19 8.97-2.43 6.57 4.714-1.286 2.429-6.286-4.714 1zm9.142-2.072-2.285 6.5 4.714-1.143 2.286-6.357zm9.572-2.214-2.286 6.428 4.714-1.143 2.286-6.285z" fill-rule="evenodd"/>
   <path d="m39.413 2.018c0.229 0.156 0.401 0.364 0.469 0.657l0.732 3.075-0.723 2-4.688 1.085 2.281-6.357z" color="#000000" display="block"/>
   <rect transform="rotate(-12.991)" x="2.672" y="11.327" width="37.843" height="4.607" rx=".265" ry=".265" color="#000000" display="block" fill="none" stroke="#fff" stroke-opacity=".575"/>
  </g>
  <g stroke-width=".26458">
   <rect transform="rotate(-12.991)" x="-81.434" y="264.07" width="10.604" height="1.8367" rx=".30242" ry=".30242" color="#000000" display="block" fill="url(#f)" stroke="#2e2e2e"/>
   <path d="m-18.053 275.31-0.64267 1.7386 1.2475-0.33999 0.64241-1.6632zm2.4569-0.62362-0.69929 1.8521 1.2472-0.30242 0.69929-1.8142zm2.5511-0.567-0.68024 1.8899 1.2472-0.30242 0.68051-1.8521z" fill-rule="evenodd"/>
   <path d="m-9.811 273.42c0.06059 0.0413 0.1061 0.096 0.12382 0.17357l0.17489 0.70035-0.28575 0.73713-1.3536 0.32491 0.6223-1.7767z" color="#000000" display="block"/>
   <rect transform="rotate(-12.991)" x="-81.178" y="264.32" width="10.107" height="1.3004" rx=".070115" ry=".070115" color="#000000" display="block" fill="none" stroke="#fff" stroke-opacity=".575"/>
   <path d="m-19.008 276.04v2.06a0.254 0.254 0 0 0 0.22675 0.24554h2.0884c0.22834 0 0.33708-0.33391 0.1606-0.51012l-1.6441-1.9278c-0.25532-0.36856-0.83158-0.18891-0.83158 0.1323z" fill="url(#g)" fill-rule="evenodd" stroke="#1b1b1b"/>
   <path d="m-18.365 276.39a0.12753 0.12753 0 1 1-0.25506 0 0.12753 0.12753 0 1 1 0.25506 0zm0 1.3983a0.12753 0.12753 0 1 1-0.25506 0 0.12753 0.12753 0 1 1 0.25506 0zm1.3324 0a0.12753 0.12753 0 1 1-0.25506 0 0.12753 0.12753 0 1 1 0.25506 0z" color="#000000" display="block" fill="#fff"/>
   <path d="m-18.091 281.74h7.4083m-7.4083 1.0959h7.4083m-1.4552-1.2094v-1.0583m-5.9531 2.2678h7.4083m-4.101-1.2094v-1.0583m-3.3753 3.3261h3.519" fill="none" opacity=".261" stroke="#fff"/>
   <path d="m-15.051 282.12c0.02064 0.17568 0.04445 0.35084 0.07197 0.52573l-0.38365 0.20293c-0.02434-0.17171-0.04472-0.34449-0.08228-0.51408zm0.70062 0.15187c-0.0045 0.37835 0.1233 0.21696-0.34793 0.47122 0.14843-0.23706 0.39899-0.47651 0.64611-0.26299 0.47149 0.0767-0.26114 0.45191 0.06456 0.0574 0.47334-0.41328 0.40455-0.18177 0.80169-0.15822 0.32412 0.0783 0.32702 0.0101-0.10372 0.25797l0.01746-0.0153 0.40746-0.1725a1.3951 1.3951 0 0 0-0.01376 0.0212c-0.51197 0.3056-0.30374 0.21564-0.6641 0.16854-0.33972-0.0595-0.52335-0.10054-0.03995-0.26987-0.2077 0.23548-0.54292 0.6006-0.84085 0.34263-0.28919-0.21325 0.38814-0.43947 0.13917-0.13308-0.48842 0.26908-0.43709 0.28231-0.4662-0.10319zm2.0952-0.4445c0.02646 0.27437 0.04128 0.54954 0.07382 0.82338 0.25929 0.33708-0.33258 0.84376-0.24527 0.32941 0.06218-0.59055 0.11827-0.69982 0.64241-0.88847 0.09975 0.17912 0.15425 0.3892 0.31036 0.49662-0.88106 0.46461 0.30824-0.26961 0.44053-0.33972 0.08467-0.0198 0.17092-0.0302 0.25718-0.0423l-0.34978 0.26194c-0.08467 0.0124-0.17013 0.0214-0.25215 0.0476 0.5461-0.3482-0.10319 0.15345-0.45614 0.33073-0.16828-0.13177-0.20823-0.34476-0.32464-0.52441 0.57282-0.40375 0.11536-0.0257 0.11642 0.46911-0.05186 0.42783-0.60457 0.64637-0.51276 0.0561-0.03148-0.26988-0.04551-0.54319-0.09631-0.80963z" fill="#fff"/>
  </g>
  <g transform="matrix(.26458 0 0 .26458 -20.737 273.16)" fill="#fff">
   <path d="m13.353 28.156c1.847-1.351 1.143-0.285 1.145 1.163-0.015 1.304 0.178 2.593 0.468 3.86l-1.28 0.692c-0.291-1.277-0.486-2.576-0.482-3.89-0.02-1.575-0.293-1.98 1.366-2.709zm4.355 0.04c-0.024 0.8-0.024 1.603-0.027 2.405l-1e-3 1.01-1.283 0.653-1e-3 -1.008c-3e-3 -0.793-3e-3 -1.585-0.027-2.378l1.34-0.682zm2.253-1.229c0.1 0.807 0.119 1.678 0.147 2.508 8e-3 0.244 0.014 0.488 0.02 0.733l-1.274 0.655c-8e-3 -0.244-0.014-0.488-0.024-0.731-0.037-0.827-0.043-1.671-0.208-2.483l1.34-0.682zm2.459-0.615c-0.2 0.692-0.273 1.416-0.343 2.134a49.16 49.16 0 0 0-0.13 2.32l-1.275 0.643c0.03-0.774 0.06-1.548 0.118-2.321 0.055-0.698 0.084-1.425 0.29-2.093z"/>
   <path d="m11.914 28.091c0.92 0.194 1.853 0.354 2.78 0.511 2.18 0.337 4.368 0.636 6.56 0.887a170.7 170.7 0 0 1 2.747 0.3l-1.184 0.838c-0.907-0.112-1.814-0.217-2.723-0.316a230.87 230.87 0 0 1-6.566-0.89c-0.94-0.151-1.888-0.336-2.83-0.445z"/>
  </g>
 </g>
</svg>
