<svg width="256" height="256" version="1.1" viewBox="0 0 67.733 67.733" xmlns="http://www.w3.org/2000/svg" xmlns:xlink="http://www.w3.org/1999/xlink">
 <defs>
  <linearGradient id="linearGradient2856" x1="273.76" x2="259.69" y1="133.89" y2="119.82" gradientUnits="userSpaceOnUse" xlink:href="#linearGradient2855"/>
  <linearGradient id="linearGradient2855">
   <stop stop-color="#919191" offset="0"/>
   <stop stop-color="#b3b3b3" offset="1"/>
  </linearGradient>
  <linearGradient id="linearGradient2858" x1="273.76" x2="259.69" y1="133.89" y2="119.82" gradientUnits="userSpaceOnUse" xlink:href="#linearGradient2847"/>
  <linearGradient id="linearGradient2847">
   <stop stop-color="#444" offset="0"/>
   <stop stop-color="#444" stop-opacity="0" offset="1"/>
  </linearGradient>
  <linearGradient id="linearGradient2846" x1="181.16" x2="213.9" y1="173.11" y2="243.11" gradientTransform="matrix(.26458 0 0 .26458 -75.685 230.84)" gradientUnits="userSpaceOnUse">
   <stop stop-color="#fff" offset="0"/>
   <stop stop-color="#b6b6b6" offset="1"/>
  </linearGradient>
  <linearGradient id="linearGradient2844" x1="132.05" x2="120.62" y1="112.68" y2="61.964" gradientTransform="matrix(.26458 0 0 .26458 -75.685 230.84)" gradientUnits="userSpaceOnUse" xlink:href="#linearGradient2996"/>
  <linearGradient id="linearGradient2996">
   <stop offset="0"/>
   <stop stop-opacity="0" offset="1"/>
  </linearGradient>
  <radialGradient id="radialGradient3564" cx="22.571" cy="30.857" r="15.571" gradientTransform="matrix(1 0 0 .65138 0 10.758)" gradientUnits="userSpaceOnUse" xlink:href="#linearGradient2996"/>
  <linearGradient id="linearGradient3801" x1="42.15" x2="50.871" y1="23.405" y2="39.318" gradientTransform="matrix(.89309 0 0 1.1197 -18.457 -.38185)" gradientUnits="userSpaceOnUse" xlink:href="#linearGradient5460"/>
  <linearGradient id="linearGradient5460">
   <stop stop-color="#e5e5e5" offset="0"/>
   <stop stop-color="#c8c8c8" offset="1"/>
  </linearGradient>
  <linearGradient id="linearGradient3803" x1="38.898" x2="69.181" y1="32.234" y2="57.055" gradientTransform="matrix(.88246 0 0 1.1232 -18.457 -.30422)" gradientUnits="userSpaceOnUse" xlink:href="#linearGradient5460"/>
  <linearGradient id="linearGradient3805" x1="48" x2="78" y1="18.534" y2="18.534" gradientTransform="matrix(1.0157,0,0,1.0477,-38.624,-6.5425)" gradientUnits="userSpaceOnUse" xlink:href="#linearGradient2296"/>
  <linearGradient id="linearGradient2296">
   <stop stop-color="#fff" offset="0"/>
   <stop stop-color="#fff" stop-opacity="0" offset="1"/>
  </linearGradient>
  <linearGradient id="linearGradient3853" x1="48" x2="78" y1="18.534" y2="18.534" gradientTransform="matrix(.96932 .30347 -.31303 .99988 -26.514 -28.878)" gradientUnits="userSpaceOnUse" xlink:href="#linearGradient2296"/>
  <linearGradient id="linearGradient3855" x1="35.321" x2="51.861" y1="24.984" y2="41.37" gradientTransform="matrix(.89309 0 0 1.1197 .12371 -12.572)" gradientUnits="userSpaceOnUse" xlink:href="#linearGradient5460"/>
  <linearGradient id="linearGradient3857" x1="34.562" x2="50.809" y1="17.249" y2="44.77" gradientTransform="matrix(.88246 0 0 1.1232 .12316 -12.494)" gradientUnits="userSpaceOnUse">
   <stop stop-color="#e5e5e5" offset="0"/>
   <stop stop-color="#dfdfdf" offset="1"/>
  </linearGradient>
  <linearGradient id="linearGradient3859" x1="54.287" x2="68.843" y1="9.1136" y2="38.118" gradientTransform="matrix(.98586 .24445 -.25216 1.0169 -24.587 -15.188)" gradientUnits="userSpaceOnUse" xlink:href="#linearGradient2296"/>
 </defs>
 <path transform="scale(.26458)" d="m128 0c-70.912-9.4739e-15 -128 57.088-128 128-9.4739e-15 70.912 57.088 128 128 128 70.912 0 128-57.086 128-128 0-70.912-57.086-128-128-128zm0 7.9746c66.48 0 120 53.52 120 120 0 66.48-53.52 120-120 120-66.48 0-120-53.52-120-120 0-66.48 53.52-120 120-120z" fill="#a55aa5" stroke-width="3.7795" style="paint-order:normal"/>
 <g transform="matrix(.55868 0 0 .55868 50.489 -114.29)">
  <g transform="matrix(.29491 0 0 .29491 -97.353 179.49)" fill-rule="evenodd">
   <path d="m216.22 170.06-13.219 83.188 63.644 55.287 55.11-116.96" fill="#323232"/>
   <path d="m363.65 190.78-19.976 83.173-77.075 34.648 23.688-114.02"/>
   <path d="m216.04 170.01 77.428-33.588 70.357 54.447-80.61 37.477z" fill="#646464"/>
   <g transform="translate(0,-6)" fill="#fff" opacity=".5">
    <path transform="matrix(.43292 .71202 -1.0969 .30121 394.92 10.663)" d="m157 152.5c0 4.4183-3.5817 8-8 8s-8-3.5817-8-8 3.5817-8 8-8 8 3.5817 8 8z" opacity="1"/>
    <path transform="matrix(.43292 .71202 -1.0969 .30121 414.1 24.717)" d="m157 152.5c0 4.4183-3.5817 8-8 8s-8-3.5817-8-8 3.5817-8 8-8 8 3.5817 8 8z" opacity="1"/>
    <path transform="matrix(.43292 .71202 -1.0969 .30121 434.25 40.273)" d="m157 152.5c0 4.4183-3.5817 8-8 8s-8-3.5817-8-8 3.5817-8 8-8 8 3.5817 8 8z" opacity="1"/>
    <path transform="matrix(.46448 .76392 -1.1768 .32316 360 13.283)" d="m157 152.5c0 4.4183-3.5817 8-8 8s-8-3.5817-8-8 3.5817-8 8-8 8 3.5817 8 8z" opacity="1"/>
    <path transform="matrix(.46448 .76392 -1.1768 .32316 380.58 28.361)" d="m157 152.5c0 4.4183-3.5817 8-8 8s-8-3.5817-8-8 3.5817-8 8-8 8 3.5817 8 8z" opacity="1"/>
    <path transform="matrix(.46448 .76392 -1.1768 .32316 402.2 45.051)" d="m157 152.5c0 4.4183-3.5817 8-8 8s-8-3.5817-8-8 3.5817-8 8-8 8 3.5817 8 8z" opacity="1"/>
    <path transform="matrix(.66328 0 -.24873 .87056 282.07 94.869)" d="m157 152.5c0 4.4183-3.5817 8-8 8s-8-3.5817-8-8 3.5817-8 8-8 8 3.5817 8 8z" opacity="1"/>
    <path transform="matrix(.66328 0 -.24873 .87056 258.74 123.15)" d="m157 152.5c0 4.4183-3.5817 8-8 8s-8-3.5817-8-8 3.5817-8 8-8 8 3.5817 8 8z" opacity="1"/>
    <path transform="matrix(.66328 0 -.24873 .87056 231.87 154.97)" d="m157 152.5c0 4.4183-3.5817 8-8 8s-8-3.5817-8-8 3.5817-8 8-8 8 3.5817 8 8z" opacity="1"/>
    <path transform="matrix(.19108 -.71311 .8643 .5182 78.747 272.53)" d="m157 152.5c0 4.4183-3.5817 8-8 8s-8-3.5817-8-8 3.5817-8 8-8 8 3.5817 8 8z" opacity="1"/>
    <path transform="matrix(.22336 -.83358 1.0103 .60575 76.637 268.33)" d="m157 152.5c0 4.4183-3.5817 8-8 8s-8-3.5817-8-8 3.5817-8 8-8 8 3.5817 8 8z" opacity="1"/>
    <path transform="matrix(.22336 -.83358 1.0103 .60575 39.432 238.56)" d="m157 152.5c0 4.4183-3.5817 8-8 8s-8-3.5817-8-8 3.5817-8 8-8 8 3.5817 8 8z" opacity="1"/>
    <path transform="matrix(.19108 -.71311 .8643 .5182 92.889 311.42)" d="m157 152.5c0 4.4183-3.5817 8-8 8s-8-3.5817-8-8 3.5817-8 8-8 8 3.5817 8 8z" opacity="1"/>
    <path transform="matrix(.19108 -.71311 .8643 .5182 58.948 283.14)" d="m157 152.5c0 4.4183-3.5817 8-8 8s-8-3.5817-8-8 3.5817-8 8-8 8 3.5817 8 8z" opacity="1"/>
   </g>
  </g>
  <g transform="matrix(.8857 0 0 1.1687 -74.856 231.89)">
   <ellipse transform="matrix(1.4081 0 0 .49296 -7.8568 28.289)" cx="22.571" cy="30.857" rx="15.571" ry="10.143" color="#000000" fill="url(#radialGradient3564)" opacity=".38636"/>
   <g transform="matrix(.98028 -.19762 .19762 .98028 -10.728 1.0851)">
    <g transform="rotate(15.124,7.6432,42.484)" stroke-linecap="round">
     <rect transform="rotate(-15.119)" x="-1.9805" y="8.2107" width="30.93" height="39.033" rx="3.0305" ry="2.8284" fill="url(#linearGradient3801)" stroke="#888a85"/>
     <rect transform="matrix(.96538 -.26086 .2608 .96539 0 0)" x="-1.013" y="9.1019" width="28.997" height="37.15" rx="2.235" ry="1.9446" fill="url(#linearGradient3803)" stroke="#fff"/>
    </g>
    <path transform="translate(.17678 7.2478)" d="m10.13 22.794c12.85 4.1674 19.237-5.7417 30.472 0l-1.88-19.205s-0.61079-2.1547-2.0153-1.8969l-24.457 0.23072c-1.5945-0.14112-1.8027 0.96593-1.7698 2.1447z" fill="url(#linearGradient3805)" fill-rule="evenodd" opacity=".51648"/>
    <path d="m17.688 12.281c-3.5527 3.3494-4.9823 4.2732-5 6.1562-0.01719 1.8305 2.2935 3.4309 4.3125 2.2812 0.06419 0.93674 0.09453 2.5561-0.46875 3.2188 0.08839 1e-6 2.4688 0.03125 2.4688 0.03125-1e-6 1e-6 -0.61244-2.03-0.6875-3.375 2.2094 1.3919 4.3572-0.11922 4.375-2.25 0.01935-2.2342-1.2814-2.9466-5-6.0625z" fill-rule="evenodd"/>
   </g>
   <g transform="translate(-1 .25)">
    <g transform="translate(0,-1.875)">
     <g transform="translate(2.5,2.75)">
      <g transform="translate(.17678 7.2478)">
       <path d="m11.249 13.686c11.018 7.8164 20.074 0.26802 29.08 9.104l5.1758-18.011-1.1939-2.5247-24.804-7.853-2.7171 1.3052z" fill="url(#linearGradient3853)" fill-rule="evenodd" opacity=".51648"/>
      </g>
      <rect transform="rotate(14.88)" x="16.6" y="-3.9797" width="30.93" height="39.033" rx="3.0305" ry="2.8284" fill="url(#linearGradient3855)" stroke="#888a85" stroke-linecap="round"/>
      <rect transform="matrix(.96647 .25677 -.25683 .96646 0 0)" x="17.567" y="-3.088" width="28.997" height="37.15" rx="2.235" ry="1.9446" fill="url(#linearGradient3857)" stroke="#fff" stroke-linecap="round"/>
      <path d="m28.219 18.579c3.7975-2.23 7.152 1.6621 6.3551 4.5284-0.72855 2.6203-3.0384 3.3497-9.2465 6.6942-4.0228-5.7367-5.582-7.2288-4.7199-10.338 0.89147-3.219 5.0527-4.6992 7.6113-0.88428z" fill="#c00" fill-rule="evenodd"/>
     </g>
     <path d="m15.409 24.666c11.47 7.1376 17.579-1.9155 27.101 6.3612l4.5219-17.23c0.26516-0.97227-0.01819-1.741-1.4324-2.0945l-23.023-6.4311c-1.3258-0.35355-2.4567 0.58282-2.6334 1.4667z" fill="url(#linearGradient3859)" fill-rule="evenodd" opacity=".51648"/>
    </g>
   </g>
  </g>
  <path d="m-28.438 270.52c-9.7972-8.192-17.634-14.622-12.946-25.419" fill="none" stroke="url(#linearGradient2844)" stroke-width="1.9844"/>
  <path d="m-25.973 271.03c7.94e-4 2.3623-1.914 4.2778-4.2763 4.2778s-4.2771-1.9155-4.2763-4.2778c-7.94e-4 -2.3623 1.914-4.2778 4.2763-4.2778s4.2771 1.9155 4.2763 4.2778z" fill="#fff" stroke="#000" stroke-dashoffset="12.5" stroke-linecap="round" stroke-linejoin="round" stroke-width=".99219"/>
  <path d="m-17.287 263.72s-31.52 14.268-35.719 16.631c-20.937 11.783 5.5516 46.919 23.435 22.112 0 0 31.959-14.211 35.53-16.631 21.434-14.528-6.1462-48.129-23.246-22.112z" fill="url(#linearGradient2846)" fill-rule="evenodd" stroke="#000" stroke-linejoin="round" stroke-width="1.3229"/>
  <g transform="matrix(.26458 0 0 .26458 -77.197 232.73)">
   <g id="g2911" transform="translate(77.5,-48.571)">
    <path transform="matrix(-1.4885,0,0,-1.4885,584.65,364.59)" d="m276.07 127.5c0 5.4242-4.3972 9.8214-9.8214 9.8214s-9.8214-4.3972-9.8214-9.8214 4.3972-9.8214 9.8214-9.8214 9.8214 4.3972 9.8214 9.8214z" fill="url(#linearGradient2856)" opacity=".5" stroke="url(#linearGradient2858)" stroke-dashoffset="12.5" stroke-linecap="round" stroke-linejoin="round" stroke-width="1.2596"/>
    <path transform="translate(-77.93,47.299)" d="m276.07 127.5c0 5.4242-4.3972 9.8214-9.8214 9.8214s-9.8214-4.3972-9.8214-9.8214 4.3972-9.8214 9.8214-9.8214 9.8214 4.3972 9.8214 9.8214z" fill="url(#linearGradient2856)" stroke="url(#linearGradient2858)" stroke-dashoffset="12.5" stroke-linecap="round" stroke-linejoin="round" stroke-width="1.875"/>
   </g>
   <use transform="translate(36.071,8.5714)" width="400" height="360" xlink:href="#g2911"/>
   <use transform="translate(19.643,41.429)" width="400" height="360" xlink:href="#g2911"/>
   <use transform="translate(-15.714,32.5)" width="400" height="360" xlink:href="#g2911"/>
  </g>
  <g transform="matrix(.2326 -.085932 .10606 .23981 -96.237 247.4)">
   <path transform="matrix(-3.6633,0,0,-3.6633,1093,705.15)" d="m276.07 127.5c0 5.4242-4.3972 9.8214-9.8214 9.8214s-9.8214-4.3972-9.8214-9.8214 4.3972-9.8214 9.8214-9.8214 9.8214 4.3972 9.8214 9.8214z" fill="url(#linearGradient2856)" opacity=".5" stroke="url(#linearGradient2858)" stroke-dashoffset="12.5" stroke-linecap="round" stroke-linejoin="round" stroke-width="1.3083"/>
   <path transform="matrix(2.878,0,0,2.878,-648.6,-128.86)" d="m276.07 127.5c0 5.4242-4.3972 9.8214-9.8214 9.8214s-9.8214-4.3972-9.8214-9.8214 4.3972-9.8214 9.8214-9.8214 9.8214 4.3972 9.8214 9.8214z" fill="url(#linearGradient2856)" stroke="url(#linearGradient2858)" stroke-dashoffset="12.5" stroke-linecap="round" stroke-linejoin="round" stroke-width="1.2167"/>
   <g transform="translate(.94634 .59253)">
    <g id="g2947">
     <path id="path2943" d="m116.73 214.74-7.226 12.429s3.613-1.5223 7.2261-1.5223c3.613 0 7.226 1.5223 7.226 1.5223z" fill="#fff" fill-rule="evenodd" stroke="#000" stroke-linecap="round" stroke-linejoin="round" stroke-opacity=".74074" stroke-width="1.0386px"/>
     <use transform="matrix(1,0,0,-1,0,474.98)" width="400" height="360" xlink:href="#path2943"/>
    </g>
    <use transform="rotate(90,116.73,237.49)" width="400" height="360" xlink:href="#g2947"/>
   </g>
  </g>
 </g>
</svg>
