<svg width="256" height="256" version="1.1" viewBox="0 0 67.733 67.733" xmlns="http://www.w3.org/2000/svg">
 <path transform="scale(.26458)" d="m128 0c-70.912-9.4739e-15 -128 57.088-128 128-9.4739e-15 70.912 57.088 128 128 128 70.912 0 128-57.086 128-128 0-70.912-57.086-128-128-128zm0 7.9746c66.48 0 120 53.52 120 120 0 66.48-53.52 120-120 120-66.48 0-120-53.52-120-120 0-66.48 53.52-120 120-120z" fill="#0ff" stroke-width="3.7795" style="paint-order:normal"/>
 <g transform="translate(71.226 -6.2552)" stroke-width=".086124">
  <path d="m-47.24 63.225c-0.66084-0.23501-1.4549-1.0464-2.1725-2.2198-0.48252-0.78905-3.1185-4.9077-3.3072-5.1675-0.08606-0.11842-0.97523-2.618-1.9759-5.5549-1.6557-4.8592-2.5704-7.5426-4.9031-14.383-0.43614-1.2789-1.0432-2.9982-1.349-3.8206-0.63112-1.6974-0.72343-2.1683-0.50696-2.5868 0.17327-0.33507 0.01211-0.26713 3.38-1.4246 2.4916-0.85626 2.704-0.91498 2.9252-0.80868 0.40474 0.19455 0.6799 0.74196 1.2048 2.3969 0.27792 0.8763 1.1832 3.5953 2.0118 6.042l1.5065 4.4488 0.08612-14.754 0.22502-0.47369c0.27086-0.57019 0.74281-1.0563 1.3252-1.365l0.43062-0.22826 10.785-0.048 0.05517-0.46944c0.09826-0.83602 0.37381-1.4106 0.95584-1.9931 0.44698-0.44734 0.62026-0.55781 1.1147-0.71052 0.69997-0.2162 1.1537-0.22757 1.7706-0.04437 1.2134 0.36036 2.0769 1.4116 2.2107 2.6915l0.05549 0.53089h5.4534c5.3665 0 5.4612 3e-3 5.9475 0.18486 0.62685 0.23454 1.2456 0.80719 1.5568 1.4408l0.23789 0.4844v29.196l-0.1861 0.40269c-0.25089 0.54287-0.83258 1.1564-1.3607 1.4351l-0.43406 0.22913-12.725 0.02266c-12.017 0.02139-12.725 0.03096-12.723 0.17225 1e-3 0.08228 0.0777 0.82782 0.17037 1.6568 0.09268 0.82894 0.16934 1.8422 0.17037 2.2517 0.0034 1.3487-0.44302 2.2669-1.2089 2.4865-0.34923 0.10016-0.39022 0.09898-0.72704-0.0208zm13.578-39.034c0.33431-0.22716 0.67512-0.82294 0.67512-1.1802 0-0.59924-0.47378-1.2793-1.0159-1.4582-0.66743-0.22027-1.4723 0.1033-1.7994 0.72341-0.22734 0.43099-0.19416 1.0915 0.07528 1.4987 0.28656 0.43301 0.67595 0.62397 1.2775 0.62646 0.36527 0.0015 0.54746-0.04713 0.78744-0.2102z" fill="#fcecdd"/>
  <path d="m-47.448 62.888c-0.56924-0.30089-1.2328-1.1562-2.7438-3.5365-0.82543-1.3004-1.7197-2.6952-1.9873-3.0992-0.47598-0.71908-0.56426-0.96282-4.0855-11.282-1.9795-5.801-3.9237-11.448-4.3206-12.55-0.80839-2.2441-0.88983-2.7184-0.51714-3.0116 0.32994-0.25953 5.6091-2.0344 5.862-1.9709 0.32692 0.08205 0.62458 0.68039 1.0884 2.1875 0.39859 1.2954 3.3241 9.9825 3.7008 10.989 0.09977 0.26666 0.2172 0.46272 0.26095 0.43567 0.04769-0.02947 0.07955-3.1134 0.07955-7.6991 0-8.8146-0.05053-8.2264 0.77868-9.0616 0.78373-0.78937 0.53706-0.76125 6.676-0.76125 4.1119 0 5.2898-0.02366 5.3587-0.10765 0.0485-0.05921 0.09056-0.33211 0.09346-0.60649 0.01043-0.9869 0.68412-1.982 1.6329-2.4119 0.63005-0.28549 1.6303-0.26268 2.2718 0.05184 0.94049 0.46109 1.5211 1.3617 1.5843 2.4577 0.01496 0.25929 0.05878 0.503 0.09737 0.54158 0.03859 0.03859 2.6078 0.08094 5.7095 0.09411l5.6392 0.02395 0.43609 0.23015c0.54958 0.29005 0.99986 0.78451 1.2096 1.3284 0.15745 0.40821 0.16289 0.9056 0.16289 14.891v14.469l-0.20548 0.45469c-0.26866 0.59453-0.91764 1.1807-1.4979 1.3531-0.3818 0.11338-2.0514 0.13004-13.033 0.13004-11.927 0-12.597 8e-3 -12.625 0.15072-0.03086 0.15581-0.0035 0.47542 0.24297 2.8373 0.16146 1.5473 0.10178 2.3124-0.23126 2.9652-0.32374 0.63462-1.0008 0.84425-1.6383 0.50725zm0.13668-2.785c0.99048-0.33097 1.1231-0.39813 1.15-0.58227 0.05422-0.37142-0.43692-5.1985-0.54036-5.311-0.0784-0.08519-0.46714 0.01648-1.8615 0.48687-3.0983 1.0452-3.0973 1.0448-3.0973 1.2062 0 0.15446 2.7111 4.4817 2.8771 4.5921 0.05177 0.03445 0.15226 0.04456 0.22332 0.02246 0.07105-0.02209 0.633-0.20851 1.2488-0.41429zm-4.1417-5.1516c0.28676-0.10974 0.48135-0.23611 0.48135-0.31258 0-0.07062-1.2829-3.8924-2.8507-8.4928-1.5679-4.6004-3.1581-9.2752-3.5333-10.388-0.37545-1.1132-0.71779-2.0802-0.76078-2.1491-0.0678-0.10858-0.14041-0.10554-0.54814 0.023-0.25848 0.08148-0.50855 0.19593-0.55571 0.25434-0.0601 0.07445 0.97708 3.2208 3.4691 10.523 3.2438 9.5054 3.6742 10.726 3.7823 10.726 0.01907 0 0.25128-0.08289 0.51602-0.1842zm3.9957-1.3739c0.32445-0.10957 0.53347-0.22889 0.53347-0.30453 0-0.06841-0.44224-1.431-0.98277-3.0279-4.3084-12.729-6.1062-17.99-6.1775-18.076-0.1089-0.13144-1.226 0.23373-1.2609 0.41216-0.01809 0.09262 6.7651 20.214 7.0878 21.025 0.07648 0.19221 0.1518 0.18944 0.79994-0.02944zm24.273-1.0872c0.45125-0.24133 0.921-0.78605 1.0504-1.218 0.14307-0.47752 0.14307-22.111 0-22.589-0.12943-0.43199-0.59919-0.97672-1.0504-1.218l-0.35677-0.19081h-21.445l-0.34449 0.18623c-0.18947 0.10243-0.46848 0.31559-0.62004 0.47369-0.58005 0.60512-0.54263-0.22536-0.54263 12.043 0 12.269-0.03741 11.438 0.54263 12.043 0.28195 0.29393 0.62395 0.50564 1.007 0.62339 0.11873 0.03649 4.9827 0.05968 10.809 0.05154l10.593-0.01482zm-6.5146-2.09c0-0.19028 0.03876-0.34671 0.08613-0.34764 1.5694-0.03018 4.1822 0.01541 4.2408 0.07398 0.04342 0.04342 0.06623 0.19024 0.05068 0.32628l-0.02827 0.24733-4.3492 0.046zm-13.849-2.6925 0.0265-0.36641 8.9906-0.02192c6.7636-0.0165 9.0206 3e-3 9.1119 0.07879 0.06949 0.05767 0.11028 0.21429 0.09543 0.36644l-0.02593 0.26571-18.225 0.04384zm-0.01656-4.0267v-0.34527l18.215 0.04384v0.60285l-18.215 0.04384zm0.03394-3.7391c-0.02573-0.06705-0.0342-0.23176-0.01883-0.36602l0.02795-0.24412 18.126-0.04384 0.05258 0.20949c0.02892 0.11522 0.02709 0.28981-0.0041 0.38795l-0.05664 0.17846h-9.0399c-7.7162 0-9.0467-0.01785-9.0868-0.12191zm-0.03394-3.8397v-0.34527l18.215 0.04384v0.60286l-18.215 0.04384zm0.03413-3.308c-0.02584-0.06733-0.0344-0.23228-0.01902-0.36654l0.02795-0.24412h13.78v0.68898l-6.8708 0.02204c-5.8738 0.01885-6.8776 0.0043-6.9179-0.10038zm-13.813-1.3906c1.4444-0.50003 2.6737-0.95577 2.7316-1.0128 0.08297-0.08158 0.05411-0.26832-0.1357-0.87794-0.30892-0.99214-0.40308-1.1619-0.64453-1.1619-0.24269 0-4.9375 1.5992-5.2031 1.7724-0.10658 0.06948-0.19378 0.1833-0.19378 0.25292 0 0.23531 0.70954 1.9364 0.80768 1.9364 0.0063 0 1.1933-0.40911 2.6378-0.90914zm23.831-7.0405c0.90428-0.62666 1.0118-1.8329 0.23283-2.6119-1.1068-1.1068-2.8783-0.35719-2.8783 1.2179 0 0.54922 0.12201 0.82997 0.53093 1.2217 0.39395 0.37738 0.63054 0.45914 1.247 0.43099 0.41036-0.01875 0.60512-0.07681 0.86756-0.25868z" fill="#e65c31"/>
  <path d="m-47.448 62.888c-0.56924-0.30089-1.2328-1.1562-2.7438-3.5365-0.82543-1.3004-1.7197-2.6952-1.9873-3.0992-0.47598-0.71908-0.56426-0.96282-4.0855-11.282-1.9795-5.801-3.9237-11.448-4.3206-12.55-0.80839-2.2441-0.88983-2.7184-0.51714-3.0116 0.32994-0.25953 5.6091-2.0344 5.862-1.9709 0.32692 0.08205 0.62458 0.68039 1.0884 2.1875 0.51314 1.6676 3.4344 10.296 3.8258 11.3 0.15696 0.40262 1.1653 3.3287 2.2408 6.5024l1.9554 5.7703 0.12082 1.2057c0.06645 0.66316 0.14184 1.5933 0.16754 2.067 0.0257 0.47368 0.10293 1.4038 0.17162 2.067 0.2272 2.1935 0.23349 2.3348 0.13024 2.9276-0.0561 0.32215-0.17894 0.73654-0.27299 0.92088-0.3211 0.62942-1.0002 0.83785-1.6356 0.50198zm0.13668-2.785c0.99048-0.33097 1.1231-0.39813 1.15-0.58227 0.05422-0.37142-0.43692-5.1985-0.54036-5.311-0.0784-0.08519-0.46714 0.01648-1.8615 0.48687-3.0983 1.0452-3.0973 1.0448-3.0973 1.2062 0 0.15446 2.7111 4.4817 2.8771 4.5921 0.05177 0.03445 0.15226 0.04456 0.22332 0.02246 0.07105-0.02209 0.633-0.20851 1.2488-0.41429zm-4.1417-5.1516c0.28676-0.10974 0.48135-0.23611 0.48135-0.31258 0-0.07062-1.2829-3.8924-2.8507-8.4928-1.5679-4.6004-3.1581-9.2752-3.5333-10.388-0.37545-1.1132-0.71779-2.0802-0.76078-2.1491-0.0678-0.10858-0.14041-0.10554-0.54814 0.023-0.25848 0.08148-0.50855 0.19593-0.55571 0.25434-0.0601 0.07445 0.97708 3.2208 3.4691 10.523 3.2438 9.5054 3.6742 10.726 3.7823 10.726 0.01907 0 0.25128-0.08289 0.51602-0.1842zm3.9957-1.3739c0.32445-0.10957 0.53347-0.22889 0.53347-0.30453 0-0.06841-0.44224-1.431-0.98277-3.0279-4.3084-12.729-6.1062-17.99-6.1775-18.076-0.1089-0.13144-1.226 0.23373-1.2609 0.41216-0.01809 0.09262 6.7651 20.214 7.0878 21.025 0.07648 0.19221 0.1518 0.18944 0.79994-0.02944zm-9.887-22.174c1.4444-0.50003 2.6737-0.95577 2.7316-1.0128 0.08297-0.08158 0.05411-0.26832-0.1357-0.87794-0.30892-0.99214-0.40308-1.1619-0.64453-1.1619-0.24269 0-4.9375 1.5992-5.2031 1.7724-0.10658 0.06948-0.19378 0.1833-0.19378 0.25292 0 0.23531 0.70954 1.9364 0.80768 1.9364 0.0063 0 1.1933-0.40911 2.6378-0.90914zm27.645 18.996c0-0.19028 0.03876-0.34671 0.08613-0.34764 1.5694-0.03018 4.1822 0.0154 4.2408 0.07398 0.04342 0.04342 0.06623 0.19024 0.05068 0.32628l-0.02827 0.24733-4.3492 0.046zm-13.849-2.6925 0.0265-0.36642 8.9906-0.02192c6.7636-0.0165 9.0206 3e-3 9.1119 0.07879 0.06949 0.05767 0.11028 0.21429 0.09543 0.36644l-0.02593 0.26571-18.225 0.04384zm-0.01656-4.0267v-0.34527l18.215 0.04384v0.60286l-18.215 0.04384zm0.03394-3.7391c-0.02573-0.06705-0.0342-0.23176-0.01883-0.36602l0.02795-0.24412 18.126-0.04384 0.05258 0.20949c0.02892 0.11522 0.02709 0.28981-0.0041 0.38795l-0.05664 0.17846h-9.0399c-7.7162 0-9.0467-0.01785-9.0868-0.12191zm-0.03394-3.8397v-0.34527l18.215 0.04384v0.60285l-18.215 0.04384zm0.03413-3.308c-0.02584-0.06733-0.0344-0.23228-0.01902-0.36654l0.02795-0.24412h13.78v0.68898l-6.8708 0.02205c-5.8738 0.01885-6.8776 0.0043-6.9179-0.10038z" fill="#6c574e"/>
  <path d="m-43.444 32.269v0.60513l6.8249-0.02222 6.8254-0.0217v-0.51677l-6.8254-0.02222zm0 3.6184v0.51677h18v-0.51677zm0 3.5311v0.60255h18v-0.60255zm0 4.0478v0.51677h18v-0.51677zm0 4.0478v0.51677h18v-0.51677zm13.866 2.6696v0.51676h4.1336v-0.51676z" fill="#5a433b"/>
 </g>
</svg>
